Brownian Motion
201
 0.4897442098770737 0.504589512394202 -6.611607788936755E-4 9.320141604256637E-4 0.05 0.0025 200 0 0
 0.44480735449987013 0.8761390617272626 -0.0038311514187888114 0.0045412857863052335 0.01 1.0E-4 0 0 200
 0.4082586425388732 0.17718628867825892 0.00599941712858872 -0.0068034117630576384 0.01 1.0E-4 0 0 200
 0.2808389481368065 0.2872363707864618 0.010005685068070579 0.009364023625355634 0.01 1.0E-4 0 0 200
 0.35902976220124494 0.9708028335554649 0.01313381023919409 -0.0076509103024506005 0.01 1.0E-4 0 0 200
 0.2946980589185271 0.328618585183608 0.0063773433888594175 0.007702563943296484 0.01 1.0E-4 0 0 200
 0.260091530281589 0.8938731187243317 0.004553284953086563 -0.008903235149988767 0.01 1.0E-4 0 0 200
 0.8076337947607365 0.9758429533955691 -0.005382259469381543 -0.0014023940801254128 0.01 1.0E-4 0 0 200
 0.20479615180960345 0.8253614965078534 0.008364310866538495 -0.005480721095613793 0.01 1.0E-4 0 0 200
 0.1783650559486592 0.6540960522426525 -0.00907406002306485 0.005173452220203815 0.01 1.0E-4 0 0 200
 0.7831918160794153 0.6268245607741522 0.0012548579262788085 -0.009920954167057483 0.01 1.0E-4 0 0 200
 0.2769990515834226 0.4001439159279895 0.014931147144779125 -0.006252146491941031 0.01 1.0E-4 0 0 200
 0.8902438819573012 0.2823560327696359 -0.005861833547567134 0.009652753283976946 0.01 1.0E-4 0 0 200
 0.0936022253706421 0.4185280919534434 2.490472133200956E-4 -0.005170368646552785 0.01 1.0E-4 0 0 200
 0.9237326680362521 0.07683037991584697 -0.014467316659309379 0.0022301215428607336 0.01 1.0E-4 0 0 200
 0.8733118527581678 0.24951373932537443 0.008022766929194868 0.008892395246663923 0.01 1.0E-4 0 0 200
 0.950071633750033 0.462103518531143 -0.005870990067598402 0.006338201724575817 0.01 1.0E-4 0 0 200
 0.25965265374728824 0.9712614188539612 -0.005563417277782368 0.011660764510860292 0.01 1.0E-4 0 0 200
 0.9432477821147113 0.7168485236071375 0.005103176518421621 -0.0022889209314844606 0.01 1.0E-4 0 0 200
 0.5738371843395644 0.6368189767264816 0.010229845408370106 0.001265781337810113 0.01 1.0E-4 0 0 200
 0.73065802071479 0.6639769111434983 0.0013632202045841917 -0.007185429024721906 0.01 1.0E-4 0 0 200
 0.767750714256284 0.4423590967372493 0.012430390550137897 0.0023938642127867508 0.01 1.0E-4 0 0 200
 0.05618309841980273 0.355928016940317 5.433325335704245E-4 -0.005906336156260389 0.01 1.0E-4 0 0 200
 0.7291508629651892 0.29074352990543995 0.004459998765082161 -0.01229269991275321 0.01 1.0E-4 0 0 200
 0.4074850794462982 0.749686163092171 0.010582791957868012 0.006226753011074953 0.01 1.0E-4 0 0 200
 0.49941525077950605 0.05287752121559764 -0.006630387299345794 -0.002128134328489786 0.01 1.0E-4 0 0 200
 0.8245302270553632 0.4170436987012607 -0.0038272109895480188 -0.009238639295993912 0.01 1.0E-4 0 0 200
 0.6433113914732064 0.3719212182094355 0.004124526331141246 0.007229554492526666 0.01 1.0E-4 0 0 200
 0.12125472545188792 0.2867797980495782 -8.656373227820834E-4 -0.0030096709514467815 0.01 1.0E-4 0 0 200
 0.7269998181733672 0.5880983654760205 -0.0023121651999438797 -0.00972902318263085 0.01 1.0E-4 0 0 200
 0.12294625911873208 0.24194104980136366 -0.004831218101201155 -0.009535756902131053 0.01 1.0E-4 0 0 200
 0.5720146895568796 0.7235072629619683 -0.0016632547184096285 -0.0022715729691225347 0.01 1.0E-4 0 0 200
 0.5157149521875294 0.8157340648981682 -0.003794336632522804 0.010546774605463216 0.01 1.0E-4 0 0 200
 0.5201410080795814 0.09398645309087399 0.005117679091732232 -0.008591237437880922 0.01 1.0E-4 0 0 200
 0.815811003345108 0.12361005779850794 -9.459832953065475E-4 0.00652992657043185 0.01 1.0E-4 0 0 200
 0.7542842527613579 0.5824339389971582 -0.0026666315364450343 -3.0506967405393055E-4 0.01 1.0E-4 0 0 200
 0.11962407312359462 0.7578634876992406 -0.0010475981712556816 -0.009944975518903089 0.01 1.0E-4 0 0 200
 0.6550345079493644 0.4577427596865341 0.005895699301968743 0.001689566830859272 0.01 1.0E-4 0 0 200
 0.38259988882413576 0.5079381915886924 0.004754723935969026 -0.005108626113614163 0.01 1.0E-4 0 0 200
 0.5561316293315807 0.65888619520783 0.005003184920830219 0.007939280557050508 0.01 1.0E-4 0 0 200
 0.022169312799723662 0.32524461983309294 0.003232401348271608 -0.0056483924032292646 0.01 1.0E-4 0 0 200
 0.5979763484617351 0.17993484322899794 0.01106265973073029 0.006576064066975045 0.01 1.0E-4 0 0 200
 0.2579088869589769 0.027683801326847914 -0.006372981406648317 0.007706173368833252 0.01 1.0E-4 0 0 200
 0.5813497909549488 0.6108914212927071 -0.0022753205907724335 -0.01233072502730592 0.01 1.0E-4 0 0 200
 0.6756870042937273 0.31195254389908283 0.0018910542783797668 -0.0046411618585605295 0.01 1.0E-4 0 0 200
 0.574022667475674 0.37786348999322406 -0.006591666561817977 0.0016766229354212084 0.01 1.0E-4 0 0 200
 0.09286560017092949 0.6059802019570902 -0.004208116647172192 0.010191477494209782 0.01 1.0E-4 0 0 200
 0.806290328101862 0.3077028344878767 0.008128572462617355 -0.009916954462972978 0.01 1.0E-4 0 0 200
 0.41505811375205365 0.2566909009354147 -0.004240256692857717 -0.00960936804950692 0.01 1.0E-4 0 0 200
 0.4938466171132795 0.09894235514666361 0.003974862579600717 -0.009176081269980664 0.01 1.0E-4 0 0 200
 0.6548431107483831 0.07546149779209704 0.01589199400429356 -0.001652557595986019 0.01 1.0E-4 0 0 200
 0.7628511785810813 0.7623455165060936 0.002164408575509937 -0.009107194899672837 0.01 1.0E-4 0 0 200
 0.9744354024875077 0.7355788576090476 0.0035398539992831787 -0.010493496872310052 0.01 1.0E-4 0 0 200
 0.6511944569660499 0.4167717680419241 -0.0014398598836305558 7.940496410146864E-4 0.01 1.0E-4 0 0 200
 0.22249510786483823 0.3267195531791185 0.0036772272464239654 -0.00889648112979103 0.01 1.0E-4 0 0 200
 0.4827974459004939 0.7829893200063189 -0.009547827200762637 0.008078220810230168 0.01 1.0E-4 0 0 200
 0.5068694489236644 0.010407397261509676 0.012281227922236411 -0.0017972259989019693 0.01 1.0E-4 0 0 200
 0.07052329859175387 0.02213471439972601 0.002787859034335271 0.007241014194137632 0.01 1.0E-4 0 0 200
 0.37386190903133526 0.6969426894181437 0.00999827102220111 -1.8594775237567354E-4 0.01 1.0E-4 0 0 200
 0.6476018102171928 0.7988831981487318 -0.007855735903837799 -0.008119728124023763 0.01 1.0E-4 0 0 200
 0.040482801298873085 0.14886140747919202 -0.0020126851845643605 -0.00506437274720091 0.01 1.0E-4 0 0 200
 0.3947991501675333 0.28323071133356653 -6.257972245789414E-4 0.005324380829760174 0.01 1.0E-4 0 0 200
 0.6491925878831528 0.7508616766193364 -0.012876164837434026 0.0033172712627759 0.01 1.0E-4 0 0 200
 0.8366253469175201 0.10136784503878307 0.004487414117924058 0.010255472987690271 0.01 1.0E-4 0 0 200
 0.7289602318096615 0.33494623853097294 0.004453615913686523 -0.007824934777736816 0.01 1.0E-4 0 0 200
 0.29024090857934315 0.10836650724341539 0.012845821768310116 -0.008089632347778795 0.01 1.0E-4 0 0 200
 0.24789139375337063 0.06605207114329964 0.005903991007086028 -0.008071114556754062 0.01 1.0E-4 0 0 200
 0.37046474690135506 0.7785417882482221 -5.756207567962693E-4 -0.004548669791011239 0.01 1.0E-4 0 0 200
 0.5349203240953742 0.3470966497636877 -0.0017867822540215891 -0.007781360694160779 0.01 1.0E-4 0 0 200
 0.2731415295345324 0.9310251013269926 -0.0040654807332626474 -6.407715773630342E-4 0.01 1.0E-4 0 0 200
 0.4962902947801617 0.44048505223354956 0.0030118803904674064 -0.007667311262104057 0.01 1.0E-4 0 0 200
 0.6868047919614374 0.5143814299572301 0.0034284638487157935 -0.012365946452470881 0.01 1.0E-4 0 0 200
 0.8060398693740354 0.6533388330867917 -0.0011860633379469033 -0.0025406019403360898 0.01 1.0E-4 0 0 200
 0.9300957574406571 0.9448487995206151 -0.005236802565972563 0.008519148953095208 0.01 1.0E-4 0 0 200
 0.19201452965158264 0.41554498949870555 0.002848937206489712 0.003888007570001544 0.01 1.0E-4 0 0 200
 0.6740996487332067 0.7305686558998155 0.003336964373348166 -0.006215716332838402 0.01 1.0E-4 0 0 200
 0.8726915278212823 0.03567243474791912 0.005824415117769239 -0.006075624650961285 0.01 1.0E-4 0 0 200
 0.4984568383639936 0.6596879322136003 0.011911580464007197 0.0061594596519110485 0.01 1.0E-4 0 0 200
 0.24147535648158178 0.3681073852492867 -0.009139901116734366 0.004057364609733503 0.01 1.0E-4 0 0 200
 0.5481937749377352 0.43129516442923643 -0.011702214692728679 -0.013212415423963786 0.01 1.0E-4 0 0 200
 0.5645683176132347 0.35510466810487307 0.005108771098829874 -0.0012843465484355626 0.01 1.0E-4 0 0 200
 0.1257747274706223 0.7339686887234894 0.01260949180410387 0.0033386370630754253 0.01 1.0E-4 0 0 200
 0.6220436731613 0.6363986742689401 0.00901606940462081 -0.0045160672422916 0.01 1.0E-4 0 0 200
 0.43447339788302797 0.7193610451591856 0.004021467405642789 0.008392792835957605 0.01 1.0E-4 0 0 200
 0.2455792572274383 0.25224381807625734 -5.739518154897771E-4 0.00998351537853756 0.01 1.0E-4 0 0 200
 0.5497238387201122 0.7215711602732192 -0.0062689814207560896 0.0015041293908383824 0.01 1.0E-4 0 0 200
 0.06675864843004012 0.7323809322952146 0.0045915232382819395 0.014305428440685244 0.01 1.0E-4 0 0 200
 0.5071074926177476 0.13321259373683725 -0.003844773544306868 -0.004426133466369501 0.01 1.0E-4 0 0 200
 0.4897019538976349 0.8342196805915136 0.004452707873152295 4.1545591187588937E-4 0.01 1.0E-4 0 0 200
 0.5901410378077068 0.29011551392470014 -0.004737709870603105 -0.013648418196215933 0.01 1.0E-4 0 0 200
 0.18389288432134904 0.5321301839312849 0.003426962844230784 0.006914373913064733 0.01 1.0E-4 0 0 200
 0.7144008039895603 0.8584877401161852 0.00915366275822306 -0.004026221318894454 0.01 1.0E-4 0 0 200
 0.6940806804650576 0.9885142661068034 0.009374817080680681 0.0034803454862668095 0.01 1.0E-4 0 0 200
 0.9491036055565637 0.9096148752962518 0.01168149620293763 -4.811563199077105E-4 0.01 1.0E-4 0 0 200
 0.3312124755850269 0.910836515824172 -0.015799842518314986 -0.007985595302233514 0.01 1.0E-4 0 0 200
 0.9004804542094638 0.8282193964940554 -0.010880800154566703 -0.00309176784198688 0.01 1.0E-4 0 0 200
 0.2084920621130757 0.2914516447556903 0.0066296179165544885 0.00427955656395985 0.01 1.0E-4 0 0 200
 0.700968317758888 0.18529499058811777 0.004221241240772371 0.00906538043256887 0.01 1.0E-4 0 0 200
 0.03596865620151934 0.6973192292464795 -0.007848546489106394 -0.004297748324965486 0.01 1.0E-4 0 0 200
 0.8861324525056867 0.31209199489782047 1.6958116871417019E-4 -0.009998562007969823 0.01 1.0E-4 0 0 200
 0.6594241553883231 0.18433088161231312 -0.009478066523094726 -0.0019126605560128903 0.01 1.0E-4 0 0 200
 0.6915599356128632 0.6193294153046466 7.812920578229372E-4 -0.0036323954822884853 0.01 1.0E-4 0 0 200
 0.34603201002653133 0.9386452721814911 -0.001071286110406966 0.001565574696494744 0.01 1.0E-4 0 0 200
 0.3579715739462051 0.6564121885218488 -0.011771504827298393 4.497478836215235E-4 0.01 1.0E-4 0 0 200
 0.1621087704387604 0.20249811284461042 0.007064353557819945 -0.013915402113877668 0.01 1.0E-4 0 0 200
 0.2679609722293983 0.5026353523855143 -0.0029605503200622416 -0.005501213580852675 0.01 1.0E-4 0 0 200
 0.5804749963446386 0.061067366732892675 0.014517288751577435 0.004658483193558348 0.01 1.0E-4 0 0 200
 0.6367294051726967 0.5042938707680642 0.008943714971686608 -0.004473249658271805 0.01 1.0E-4 0 0 200
 0.9249646841552467 0.03664311269875527 0.010515839556383704 -0.0011298944496883788 0.01 1.0E-4 0 0 200
 0.9604179435416262 0.949107491431343 0.0022212067264831994 -0.011507251920919618 0.01 1.0E-4 0 0 200
 0.21595185211155796 0.4735557889778666 0.005764381789010732 -0.0014678204522807006 0.01 1.0E-4 0 0 200
 0.6699510575911062 0.7038698321662256 -0.0017449418359341854 0.0063174881003995684 0.01 1.0E-4 0 0 200
 0.2000339767106863 0.22790435231514905 -0.0013598773726486626 -0.0019343214060683939 0.01 1.0E-4 0 0 200
 0.20626038186898035 0.6797416769044643 0.01596690027304978 0.005859856388689383 0.01 1.0E-4 0 0 200
 0.5249906555898779 0.6797029816472907 0.006884054325682412 0.00936448427605354 0.01 1.0E-4 0 0 200
 0.751816689597829 0.157243499159006 0.0059347132720583284 0.007253524281896581 0.01 1.0E-4 0 0 200
 0.8919300134290042 0.5010686471206626 -0.0052009274514207785 -0.008541097918011347 0.01 1.0E-4 0 0 200
 0.5730848868340565 0.43155034306773266 -0.004357356511548473 3.934502063917319E-4 0.01 1.0E-4 0 0 200
 0.935696259216784 0.4876281969210675 -0.007438504540006606 0.006094652241382706 0.01 1.0E-4 0 0 200
 0.364690020040241 0.5800557459931207 0.0012521068703942335 0.010360810622486064 0.01 1.0E-4 0 0 200
 0.14961950605766208 0.9324130894952551 -0.007860106031437795 -0.0015165205585766835 0.01 1.0E-4 0 0 200
 0.8267960764026614 0.7965936795897538 0.008406568056449012 0.005415682183464156 0.01 1.0E-4 0 0 200
 0.38599315779970766 0.6034018880039533 0.008434692492990514 0.003814277219868729 0.01 1.0E-4 0 0 200
 0.9652530452537311 0.7975515677132994 0.007278681902597943 -0.006857170681906145 0.01 1.0E-4 0 0 200
 0.6962919963602616 0.01797152308726594 0.0019341331227702846 -0.0037158314414532942 0.01 1.0E-4 0 0 200
 0.5814403466230983 0.3185274073242482 -0.00862519350433482 4.1482568763247935E-4 0.01 1.0E-4 0 0 200
 0.8444714634748733 0.4041580547272552 -0.013533157144411041 -0.005232471874669776 0.01 1.0E-4 0 0 200
 0.8355744740037662 0.467741108741257 0.002112974241475215 -0.005577101436335624 0.01 1.0E-4 0 0 200
 0.03340286226734535 0.5884240275997906 -0.012587899514364419 0.009881426634148158 0.01 1.0E-4 0 0 200
 0.3364386630932446 0.8148463314155872 -0.0035770532922681252 0.00933834512878346 0.01 1.0E-4 0 0 200
 0.07100849584689137 0.6186027329507133 -0.005533490362311921 -0.010435361469106317 0.01 1.0E-4 0 0 200
 0.09083168353689426 0.6388831089290022 -0.001295085016515666 -0.003228869300377372 0.01 1.0E-4 0 0 200
 0.3028172877285434 0.14817537753597426 0.0029509100409699086 0.00955469151412556 0.01 1.0E-4 0 0 200
 0.12335044921929961 0.21562519115055398 0.010183225361376183 0.0013978741265523766 0.01 1.0E-4 0 0 200
 0.39826588239339156 0.20319961284183588 7.252277655215413E-4 0.0062103982423950405 0.01 1.0E-4 0 0 200
 0.4278564290742788 0.9134075006400533 -0.011480256900953435 0.004270254356770805 0.01 1.0E-4 0 0 200
 0.9816013521768022 0.8459352150629738 -0.0092747576062057 0.0022533711181389835 0.01 1.0E-4 0 0 200
 0.3217677466896079 0.02672514564065409 -0.005673100604488238 -0.0069417493962073825 0.01 1.0E-4 0 0 200
 0.12115462011375928 0.8406387640271292 0.008782537573145986 0.007253222675748773 0.01 1.0E-4 0 0 200
 0.6537753231265726 0.9213683373855294 -0.004727209935711276 9.011929313904928E-4 0.01 1.0E-4 0 0 200
 0.33910386394591696 0.27534934401340205 -0.009131537871669584 0.00939646757927908 0.01 1.0E-4 0 0 200
 0.05145711505562971 0.8357210935297977 -0.005761937402691413 0.005567278682275806 0.01 1.0E-4 0 0 200
 0.42292628954703604 0.9729083480937252 -0.0036598643169927026 -0.009306201866562079 0.01 1.0E-4 0 0 200
 0.025111248160163163 0.5159639062775144 -0.007667856684970097 0.004471059157796098 0.01 1.0E-4 0 0 200
 0.9844227055671978 0.1617588820455024 0.005930578022807559 0.006137815815351963 0.01 1.0E-4 0 0 200
 0.9025454617415716 0.4529645770371322 -0.003828045700002644 -0.006258454701590441 0.01 1.0E-4 0 0 200
 0.7350074434685289 0.2706752131082234 -0.0063496855139048725 0.009951538653559347 0.01 1.0E-4 0 0 200
 0.9599642952557876 0.3211318529472182 0.016619656168366772 4.559943588488928E-5 0.01 1.0E-4 0 0 200
 0.6358503313352266 0.9376564470452666 0.009562110291417897 0.002075913702399332 0.01 1.0E-4 0 0 200
 0.7784157963737341 0.5307879286990577 0.011688943474703666 -0.01362764385318796 0.01 1.0E-4 0 0 200
 0.747238067678956 0.48412014688520144 0.011462885035612422 0.005827978343290855 0.01 1.0E-4 0 0 200
 0.8965469576590578 0.38566222826642127 -0.004405815741832275 -0.007008853907093208 0.01 1.0E-4 0 0 200
 0.5027218999940779 0.2225742699694559 0.009219810648183805 0.01125202914231857 0.01 1.0E-4 0 0 200
 0.40321004839588637 0.14539459822124545 -3.374176893901012E-5 -3.883035171332559E-4 0.01 1.0E-4 0 0 200
 0.6374394696921212 0.09421573527419828 0.003559823682580476 7.471458551689064E-4 0.01 1.0E-4 0 0 200
 0.871776696560556 0.2216870562123046 0.005028725884629919 -0.00254093733956863 0.01 1.0E-4 0 0 200
 0.7138786396678788 0.8809556896152536 -0.009788366186032741 -1.0858857962585313E-4 0.01 1.0E-4 0 0 200
 0.2770381887403484 0.5929051571775487 -0.009172589604960844 0.001681773711416939 0.01 1.0E-4 0 0 200
 0.469044261005159 0.25899665123543564 -0.010463030766668078 -0.013221857101118655 0.01 1.0E-4 0 0 200
 0.20522264595752082 0.12172989979179294 0.0042888543547229055 -0.009033588895005926 0.01 1.0E-4 0 0 200
 0.2356582563574247 0.5493089714260206 -0.0023962344799505165 0.009708659038049296 0.01 1.0E-4 0 0 200
 0.16212616614947925 0.44947938828891726 4.227809003245447E-4 -0.004336112223907059 0.01 1.0E-4 0 0 200
 0.4960359994949173 0.5848331891619762 0.003478803221434788 -0.006563146248177412 0.01 1.0E-4 0 0 200
 0.02013183646478646 0.6072174601192291 -9.008416534549936E-4 -0.0033901000445093737 0.01 1.0E-4 0 0 200
 0.20877162669010157 0.3796870155812692 0.01052929456991571 -0.001142805623798226 0.01 1.0E-4 0 0 200
 0.9683087144852565 0.5851763452196785 0.009099628388046104 -0.008328934323639632 0.01 1.0E-4 0 0 200
 0.7754824776497458 0.8277144897423879 0.002657442829344151 -0.012179199526361092 0.01 1.0E-4 0 0 200
 0.7011569924509707 0.8120473375593704 0.001910407723792494 -0.008479476465254685 0.01 1.0E-4 0 0 200
 0.3294779766594907 0.7361669108591495 -0.0023395387687921926 0.0010959658281034096 0.01 1.0E-4 0 0 200
 0.7142168921395756 0.25759614564632816 -0.00455302956053476 0.013363789651677293 0.01 1.0E-4 0 0 200
 0.4189430115483097 0.8863438024108071 -0.010773754572009731 0.003984871227135958 0.01 1.0E-4 0 0 200
 0.8400289589393506 0.8490074688133792 -0.003520715841747832 0.007778004363344689 0.01 1.0E-4 0 0 200
 0.8542662459636432 0.5286684816338406 0.0041678729492709895 0.0010609443804032769 0.01 1.0E-4 0 0 200
 0.16795567793848956 0.736567622291805 0.003007192325039006 0.008640805477816293 0.01 1.0E-4 0 0 200
 0.14146192550703784 0.5569684432771274 -6.91628593807489E-4 0.00714050970783483 0.01 1.0E-4 0 0 200
 0.506589904876315 0.77913078005591 -0.002102775531066488 -0.0036258608921177385 0.01 1.0E-4 0 0 200
 0.7380949833606171 0.07631352870567672 -0.0052784758462608005 -0.0021754619027662602 0.01 1.0E-4 0 0 200
 0.7205322700702476 0.5410173131283674 0.009330737361916804 -1.0555266545607812E-4 0.01 1.0E-4 0 0 200
 0.26732209977396515 0.17523834725335816 -6.750672044678607E-4 0.006744308986130707 0.01 1.0E-4 0 0 200
 0.01738771258297707 0.5723204585955194 -0.002126295042411527 0.00493320541616353 0.01 1.0E-4 0 0 200
 0.7095773245919164 0.7507906203458286 -8.837308466597433E-4 -0.01451260217298489 0.01 1.0E-4 0 0 200
 0.20580231682176436 0.2556624765110917 0.010352120861429205 0.003341404026606559 0.01 1.0E-4 0 0 200
 0.6734731786464155 0.5907030918161994 0.005784869132459454 -0.006732259756677764 0.01 1.0E-4 0 0 200
 0.4485208294330535 0.06316325557430498 6.050488804975589E-4 -0.004504720292848155 0.01 1.0E-4 0 0 200
 0.4016887666269523 0.8020715382465045 -7.59905913996084E-5 0.009999711267332609 0.01 1.0E-4 0 0 200
 0.7585945224269219 0.8894890752660839 0.002529077621332348 2.010065910408778E-4 0.01 1.0E-4 0 0 200
 0.8111953509766577 0.05595683145853133 0.004181353659560962 -0.011080705732839645 0.01 1.0E-4 0 0 200
 0.15450657947207447 0.4768749384364514 0.005208355460023448 2.9433846959154436E-4 0.01 1.0E-4 0 0 200
 0.4284524152661633 0.22611739054887459 -4.5651860354063364E-4 0.014206985272919914 0.01 1.0E-4 0 0 200
 0.8778412718764181 0.33526610089064046 -0.013372479334494836 -0.006457694916671589 0.01 1.0E-4 0 0 200
 0.9354548686488586 0.33489537370997285 0.0016967931023914723 0.0031961145594333624 0.01 1.0E-4 0 0 200
 0.9644756257525517 0.2229936444354694 0.007676460213179564 -0.002174565303281744 0.01 1.0E-4 0 0 200
 0.8741102916506813 0.8643179498513787 0.008029534177457736 -0.002970411606002573 0.01 1.0E-4 0 0 200
 0.019411740800275076 0.8971896512341391 -0.004439966304860777 -0.008960284549706049 0.01 1.0E-4 0 0 200
 0.6917926875014109 0.5337494680117751 0.001761371794987655 0.0038126870463356943 0.01 1.0E-4 0 0 200
 0.21581385789571716 0.7772718960381032 -0.0127225429219885 0.0026433688577921274 0.01 1.0E-4 0 0 200
 0.3390218754711454 0.05161567925109767 -0.0019500129854187307 -0.0031780966296564997 0.01 1.0E-4 0 0 200
 0.21366841614838986 0.4432295952111848 0.005111413738159052 -0.008466092641000952 0.01 1.0E-4 0 0 200
 0.08990267750952104 0.5574094228766125 -5.63663795607669E-5 -0.005484755371622585 0.01 1.0E-4 0 0 200
 0.7958235830264894 0.5495806156241155 3.9905232772027735E-4 0.009992034689678625 0.01 1.0E-4 0 0 200
 0.04183755425200397 0.6569104393801951 0.012150491686589174 0.00636247640675059 0.01 1.0E-4 0 0 200
